﻿[to]
{user_email}

[from]
noreply@dev.freeworldco.com

[subject]
Login details - FreeWorldco.com

[body]
<img src="{_siteurl}/images/freeworld/logo.png/><br/><br/>
<div>
	Dear, <br/><br/>
	Welcome to Free world!  <br/>
	Please keep this information safe as it contains your username and password. <br/>
	Your Membership Info:<br/>
	U : <b>{user_email}</b><br/>
	P : <b>{user_email}</b><br/>
	Login URL: <b>{_siteurl}/index.php/user/login</b><br/><br/>
                                                         
			Thank you for choosing Free world<br/><br/>

			Sincerely, <br/>
			Team Free world

</div>